Plane,Destination,Departure 1 time,Arrival 1 time,Departure 2 time,Arrival 2 time,Flight 1,Flight 2,Employee id list,Unique ID
TF-NAA,ENSB,2019-10-02T06:21:00,2019-10-02T10:21:00,2019-10-02T11:21:00,2019-10-02T15:21:00,NA0101,NA0102,William Carillo:captain;Virginia Ho:copilot;John Kline:flight_service_manager,1
TF-NAC,ENSB,2019-10-04T05:32:00,2019-10-04T09:32:00,2019-10-04T10:32:00,2019-10-04T14:32:00,NA0101,NA0102,Gerard Nelson:captain;Allen Ley:copilot;Delores Whitfield:flight_service_manager,2
TF-NAB,ENSB,2019-10-06T05:39:00,2019-10-06T09:39:00,2019-10-06T10:39:00,2019-10-06T14:39:00,NA0101,NA0102,William Carillo:captain;Virginia Ho:copilot;John Kline:flight_service_manager,3
TF-NAF,ENSB,2019-10-08T06:35:00,2019-10-08T10:35:00,2019-10-08T11:35:00,2019-10-08T11:35:00,NA0101,NA0102,Charla Johnson:captain;Sam Preciado:copilot;Bernard Carr:flight_service_manager,4
TF-NAB,ENSB,2019-10-10T06:18:00,2019-10-10T06:18:00,2019-10-10T11:18:00,2019-10-10T15:18:00,NA0101,NA0102,William Carillo:captain;Virginia Ho:copilot;John Kline:flight_service_manager,5
TF-NAA,ENSB,2019-10-12T06:20:00,2019-10-12T10:20:00,2019-10-12T11:20:00,2019-10-12T15:20:00,NA0101,NA0102,William Carillo:captain;Virginia Ho:copilot;John Kline:flight_service_manager,6
TF-NAC,ENSB,2019-10-14T05:18:00,2019-10-14T09:18:00,2019-10-14T10:18:00,2019-10-14T14:18:00,NA0101,NA0102,Gerard Nelson:captain;Allen Ley:copilot;Delores Whitfield,7
TF-NAB,ENSB,2019-10-16T06:21:00,2019-10-16T10:21:00,2019-10-16T11:21:00,2019-10-16T15:21:00,NA0101,NA0102,William Carillo:captain;Virginia Ho:copilot;John Kline:flight_service_manager,8
TF-NAA,ENSB,2019-10-18T05:25:00,2019-10-18T09:25:00,2019-10-18T10:25:00,2019-10-18T14:25:00,NA0101,NA0102,William Carillo:captain;Virginia Ho:copilot;John Kline:flight_service_manager,9
TF-NAC,ENSB,2019-10-20T06:40:00,2019-10-20T10:40:00,2019-10-20T11:40:00,2019-10-20T15:40:00,NA0101,NA0102,Gerard Nelson:captain;Allen Ley:copilot;Delores Whitfield:flight_service_manager,10
TF-NAF,ENSB,2019-10-22T06:23:00,2019-10-22T10:23:00,2019-10-22T11:23:00,2019-10-22T15:23:00,NA0101,NA0102,Charla Johnson:captain;Sam Preciado:copilot;Bernard Carr:flight_service_manager,11
TF-NAA,ENSB,2019-10-24T06:37:00,2019-10-24T10:37:00,2019-10-24T11:37:00,2019-10-24T15:37:00,NA0101,NA0102,William Carillo:captain;Virginia Ho:copilot;John Kline:flight_service_manager,12
TF-NAG,ENSB,2019-10-26T06:25:00,2019-10-26T10:25:00,2019-10-26T11:25:00,2019-10-26T15:25:00,NA0101,NA0102,Jasmine Hagadone:captain;Anna Phillips:copilot;Stacey Henrickson:flight_service_manager,13
TF-NAA,ENSB,2019-10-28T06:25:00,2019-10-28T10:25:00,2019-10-28T11:25:00,2019-10-28T15:25:00,NA0101,NA0102,William Carillo:captain;Virginia Ho:copilot;John Kline:flight_service_manager,14
TF-NAB,ENSB,2019-10-30T05:23:00,2019-10-30T09:23:00,2019-11-30T10:23:00,2019-11-30T14:23:00,NA0101,NA0102,William Carillo:captain;Virginia Ho:copilot;John Kline:flight_service_manager,15
TF-NAG,BGGH,2019-11-08T10:31:00,2019-11-08T13:31:00,2019-11-08T14:31:00,2019-11-08T17:31:00,NA0201,NA0202,Jasmine Hagadone:captain;Anna Phillips:copilot;Stacey Henrickson:flight_service_manager,16
TF-NAC,BGGH,2019-11-12T10:45:00,2019-11-12T13:45:00,2019-11-12T14:45:00,2019-11-12T17:45:00,NA0201,NA0203,Gerard Nelson:captain;Allen Ley:copilot;Delores Whitfield:flight_service_manager,17
TF-NAF,BGGH,2019-11-20T10:24:00,2019-11-20T13:24:00,2019-11-20T14:24:00,2019-11-20T17:24:00,NA0201,NA0204,Charla Johnson:captain;Sam Preciado:copilot;Bernard Carr:flight_service_manager,18
TF-NAE,BGGH,2019-11-24T10:43:00,2019-11-24T13:43:00,2019-11-24T14:43:00,2019-11-24T17:43:00,NA0201,NA0205,Nan Gage:captain;Tyler Anderson:copilot;Bernard Carr:flight_service_manager,19
TF-NAD,BGGH,2019-11-28T09:18:00,2019-11-28T12:18:00,2019-11-28T13:18:00,2019-11-28T16:18:00,NA0201,NA0206,Nan Gage:captain;Tyler Anderson:copilot;Bernard Carr:flight_service_manager,20
TF-NAA,BGKK,2019-11-06T14:31:00,2019-11-06T15:31:00,2019-11-06T16:31:00,2019-11-06T17:31:00,NA0301,NA0302,William Carillo:captain;Virginia Ho:copilot;John Kline:flight_service_manager,21
TF-NAB,BGKK,2019-11-30T13:22:00,2019-11-30T14:22:00,2019-11-30T15:22:00,2019-11-30T16:22:00,NA0301,NA0302,William Carillo:captain;Virginia Ho:copilot;John Kline:flight_service_manager,22
TF-NAG,EKVG,2019-11-18T00:00:00,2019-11-18T01:00:00,2019-11-18T02:00:00,2019-11-18T03:00:00,NA0401,NA0402,Jasmine Hagadone:captain;Anna Phillips:copilot;Stacey Henrickson:flight_service_manager,23
TF-NAE,EKVG,2019-11-30T00:00:00,2019-11-30T01:00:00,2019-11-30T02:00:00,2019-11-30T03:00:00,NA0401,NA0402,Nan Gage:captain;Tyler Anderson:copilot;Bernard Carr:flight_service_manager,24
TF-NAD,EGET,2019-11-06T00:00:00,2019-11-06T04:00:00,2019-11-06T05:00:00,2019-11-06T09:00:00,NA0501,NA0502,Nan Gage:captain;Tyler Anderson:copilot;Bernard Carr:flight_service_manager,25
TF-NAC,EGET,2019-11-24T00:00:00,2019-11-24T04:00:00,2019-11-24T05:00:00,2019-11-24T09:00:00,NA0501,NA0502,Gerard Nelson:captain;Allen Ley:copilot;Delores Whitfield:flight_service_manager,26
